\relax 
\@writefile{toc}{\contentsline {section}{\numberline {1}Temat projektu}{1}}
\@writefile{toc}{\contentsline {section}{\numberline {2}Opis architektury}{1}}
\@writefile{lof}{\contentsline {figure}{\numberline {1}{\ignorespaces Architektura projektu}}{1}}
\newlabel{r1}{{1}{1}}
\@writefile{toc}{\contentsline {section}{\numberline {3}Stos technologiczny}{1}}
\@writefile{lof}{\contentsline {figure}{\numberline {2}{\ignorespaces Stos technologiczny}}{2}}
\newlabel{r2}{{2}{2}}
\@writefile{toc}{\contentsline {section}{\numberline {4}Przep\IeC {\l }yw danych}{2}}
\@writefile{lof}{\contentsline {figure}{\numberline {3}{\ignorespaces Przep\IeC {\l }yw danych}}{3}}
\newlabel{r3}{{3}{3}}
\@writefile{lof}{\contentsline {figure}{\numberline {4}{\ignorespaces Proces Impali}}{4}}
\newlabel{r4}{{4}{4}}
\@writefile{toc}{\contentsline {subsection}{\numberline {4.1}Workflow w ooziem}{4}}
\@writefile{lof}{\contentsline {figure}{\numberline {5}{\ignorespaces Workflow w Ooziem}}{5}}
\newlabel{r5}{{5}{5}}
\@writefile{toc}{\contentsline {section}{\numberline {5}Aplikacja}{6}}
\@writefile{lof}{\contentsline {figure}{\numberline {6}{\ignorespaces G\IeC {\l }\IeC {\'o}wne okno aplikacji}}{6}}
\newlabel{r6}{{6}{6}}
\@writefile{lof}{\contentsline {figure}{\numberline {7}{\ignorespaces Panel wyboru statystyk}}{6}}
\newlabel{r7}{{7}{6}}
\@writefile{lof}{\contentsline {figure}{\numberline {8}{\ignorespaces Wyb\IeC {\'o}r przedzia\IeC {\l }u czasowego}}{7}}
\newlabel{r8}{{8}{7}}
\@writefile{lof}{\contentsline {figure}{\numberline {9}{\ignorespaces Wykres ko\IeC {\l }owy}}{8}}
\newlabel{r11}{{9}{8}}
\@writefile{lof}{\contentsline {figure}{\numberline {10}{\ignorespaces Wykres liniowy}}{9}}
\newlabel{r10}{{10}{9}}
\@writefile{lof}{\contentsline {figure}{\numberline {11}{\ignorespaces Wykres s\IeC {\l }upkowy}}{10}}
\newlabel{r9}{{11}{10}}
\@writefile{lof}{\contentsline {figure}{\numberline {12}{\ignorespaces Dane prezentowane w tabeli}}{11}}
\newlabel{r12}{{12}{11}}
\@writefile{toc}{\contentsline {subsection}{\numberline {5.1}Przyk\IeC {\l }ad wykresu ograniczonego przedzia\IeC {\l }em czasu}{11}}
\@writefile{lof}{\contentsline {figure}{\numberline {13}{\ignorespaces Ograniczenie przedzia\IeC {\l }em czasu}}{12}}
\newlabel{r13}{{13}{12}}
\@writefile{toc}{\contentsline {subsection}{\numberline {5.2}Przyk\IeC {\l }ad wykresu dla statystyki zu\IeC {\.z}ycia transferu na zas\IeC {\'o}b}{12}}
\@writefile{lof}{\contentsline {figure}{\numberline {14}{\ignorespaces Zu\IeC {\.z}ycie transfer na dany zas\IeC {\'o}b}}{13}}
\newlabel{r14}{{14}{13}}
\@writefile{toc}{\contentsline {subsection}{\numberline {5.3}Przyk\IeC {\l }ad wykresu dla \IeC {\.z}\IeC {\k a}da\IeC {\'n} i kod\IeC {\'o}w statusu}{13}}
\@writefile{lof}{\contentsline {figure}{\numberline {15}{\ignorespaces Ilo\IeC {\'s}\IeC {\'c} \IeC {\.z}\IeC {\k a}da\IeC {\'n} dla u\IeC {\.z}ytkownika wraz z statusem odpowiedzi}}{14}}
\newlabel{r15}{{15}{14}}
\@writefile{toc}{\contentsline {section}{\numberline {6}Security}{14}}
\@writefile{toc}{\contentsline {subsection}{\numberline {6.1}VPN}{14}}
\@writefile{toc}{\contentsline {subsection}{\numberline {6.2}TLS}{14}}
\@writefile{toc}{\contentsline {section}{\numberline {7}Performance}{15}}
\@writefile{toc}{\contentsline {subsection}{\numberline {7.1}Grupowanie rekord\IeC {\'o}w po 1 kolumnie i sumowanie jednej kolumny}{15}}
\@writefile{lof}{\contentsline {figure}{\numberline {16}{\ignorespaces Op\IeC {\'o}\IeC {\'z}nienie odpowiedzi na zapytanie}}{15}}
\@writefile{lof}{\contentsline {figure}{\numberline {17}{\ignorespaces Op\IeC {\'o}\IeC {\'z}nienie odpowiedzi na zapytanie}}{16}}
\@writefile{lof}{\contentsline {figure}{\numberline {18}{\ignorespaces Op\IeC {\'o}\IeC {\'z}nienie odpowiedzi na zapytanie}}{16}}
\newlabel{r18}{{18}{16}}
\@writefile{toc}{\contentsline {subsection}{\numberline {7.2}Grupowanie rekord\IeC {\'o}w po 1 kolumnie zawieraj\IeC {\k a}c\IeC {\k a} zformatowan\IeC {\k a} dat\IeC {\k e}}{16}}
\@writefile{lof}{\contentsline {figure}{\numberline {19}{\ignorespaces Op\IeC {\'o}\IeC {\'z}nienie odpowiedzi na zapytanie}}{17}}
\@writefile{lof}{\contentsline {figure}{\numberline {20}{\ignorespaces Op\IeC {\'o}\IeC {\'z}nienie odpowiedzi na zapytanie}}{17}}
\@writefile{lof}{\contentsline {figure}{\numberline {21}{\ignorespaces Op\IeC {\'o}\IeC {\'z}nienie odpowiedzi na zapytanie}}{18}}
\@writefile{toc}{\contentsline {subsection}{\numberline {7.3}Grupowanie po 2 kolumnach}{18}}
\@writefile{lof}{\contentsline {figure}{\numberline {22}{\ignorespaces Op\IeC {\'o}\IeC {\'z}nienie odpowiedzi na zapytanie}}{18}}
\@writefile{lof}{\contentsline {figure}{\numberline {23}{\ignorespaces Op\IeC {\'o}\IeC {\'z}nienie odpowiedzi na zapytanie}}{19}}
\@writefile{lof}{\contentsline {figure}{\numberline {24}{\ignorespaces Op\IeC {\'o}\IeC {\'z}nienie odpowiedzi na zapytanie}}{19}}
\@writefile{toc}{\contentsline {subsection}{\numberline {7.4}Test sumaryczny}{19}}
\@writefile{lof}{\contentsline {figure}{\numberline {25}{\ignorespaces Op\IeC {\'o}\IeC {\'z}nienie odpowiedzi na zapytanie}}{20}}
\@writefile{lof}{\contentsline {figure}{\numberline {26}{\ignorespaces Op\IeC {\'o}\IeC {\'z}nienie odpowiedzi na zapytanie}}{20}}
\@writefile{lof}{\contentsline {figure}{\numberline {27}{\ignorespaces Op\IeC {\'o}\IeC {\'z}nienie odpowiedzi na zapytanie}}{21}}
